<?xml version="1.0"?>
<VTKFile type="PolyData" version="0.1" byte_order="LittleEndian">
  <PolyData>
    <Piece NumberOfPoints="     19" NumberOfVerts="  0" NumberOfLines="     18"
           NumberOfStrips="  0" NumberOfPolys="      0">
      <Points>
        <DataArray type="Float32" NumberOfComponents="3" format="ascii">
                      -4.92586                      -0.25044                      91.47805
                      -4.86866                      -0.48129                      92.82388
                      -4.77775                      -1.03634                      95.50068
                      -4.69768                      -1.63579                      98.17041
                      -4.60358                      -2.41196                     101.50332
                      -4.43442                      -3.20343                     105.52395
                      -4.23756                      -3.86776                     109.56489
                      -4.04081                      -4.53043                     113.60612
                      -3.84140                      -5.18965                     117.64781
                      -3.63988                      -5.84723                     121.68969
                      -3.43738                      -6.50667                     125.73120
                      -3.23295                      -7.16640                     129.77257
                      -3.02708                      -7.82632                     133.81384
                      -2.82045                      -8.48636                     137.85506
                      -2.61134                      -9.14660                     141.89613
                      -2.43516                      -9.69691                     145.26363
                      -2.29317                     -10.12945                     147.95885
                      -2.15036                     -10.50782                     150.66332
                      -2.07990                     -10.73812                     152.00852
        </DataArray>
      </Points>
      <PointData>
        <DataArray type="Float32" Name="TranslationalVelocity" NumberOfComponents="3" format="ascii">
                       0.00270                      -0.25303                      -0.04297
                      -0.00068                      -0.48835                      -0.08319
                      -0.00890                      -0.95622                      -0.17993
                      -0.01781                      -1.42297                      -0.28448
                      -0.02937                      -2.00602                      -0.41998
                      -0.04109                      -2.71092                      -0.55833
                      -0.05087                      -3.42057                      -0.67463
                      -0.06066                      -4.13103                      -0.79074
                      -0.07045                      -4.84231                      -0.90635
                      -0.08034                      -5.55427                      -1.02175
                      -0.09043                      -6.26667                      -1.13753
                      -0.10077                      -6.97948                      -1.25340
                      -0.11141                      -7.69258                      -1.36933
                      -0.12244                      -8.40589                      -1.48529
                      -0.13389                      -9.11937                      -1.60127
                      -0.14381                      -9.71405                      -1.69794
                      -0.15188                     -10.19010                      -1.77392
                      -0.15935                     -10.66787                      -1.84037
                      -0.16380                     -10.90555                      -1.88083
        </DataArray>
        <DataArray type="Float32" Name="RotationalVelocity" NumberOfComponents="3" format="ascii">
                       0.17417                       0.00010                      -0.01526
                       0.17420                       0.00010                      -0.01526
                       0.17428                       0.00009                      -0.01526
                       0.17439                       0.00009                      -0.01527
                       0.17454                       0.00009                      -0.01527
                       0.17473                       0.00009                      -0.01528
                       0.17492                       0.00009                      -0.01528
                       0.17510                       0.00008                      -0.01529
                       0.17525                       0.00006                      -0.01529
                       0.17539                       0.00003                      -0.01530
                       0.17549                      -0.00002                      -0.01530
                       0.17558                      -0.00009                      -0.01530
                       0.17565                      -0.00017                      -0.01531
                       0.17570                      -0.00027                      -0.01531
                       0.17574                      -0.00038                      -0.01532
                       0.17577                      -0.00048                      -0.01532
                       0.17579                      -0.00055                      -0.01533
                       0.17580                      -0.00062                      -0.01533
                       0.17581                      -0.00065                      -0.01533
        </DataArray>
        <DataArray type="Float32" Name="TranslationalAcceleration" NumberOfComponents="3" format="ascii">
                       0.05728                      -0.01788                      -0.04155
                       0.01481                      -0.00940                      -0.05532
                       0.03497                      -0.02280                      -0.15925
                       0.04481                      -0.03132                      -0.25622
                       0.04753                      -0.03818                      -0.37084
                       0.04249                      -0.04816                      -0.50152
                       0.03403                      -0.06116                      -0.62874
                       0.02587                      -0.07413                      -0.75591
                       0.02010                      -0.08774                      -0.88456
                       0.01752                      -0.10214                      -1.01516
                       0.01802                      -0.11716                      -1.14739
                       0.02089                      -0.13259                      -1.28052
                       0.02524                      -0.14813                      -1.41366
                       0.03035                      -0.16348                      -1.54610
                       0.03600                      -0.17851                      -1.67760
                       0.04162                      -0.19083                      -1.78678
                       0.04734                      -0.20107                      -1.87435
                       0.05515                      -0.21348                      -1.96271
                       0.06019                      -0.21861                      -2.00766
        </DataArray>
        <DataArray type="Float32" Name="OrientationX" NumberOfComponents="3" format="ascii">
                       0.96882                      -0.23404                      -0.08130
                       0.96882                      -0.23403                      -0.08134
                       0.96881                      -0.23402                      -0.08146
                       0.96880                      -0.23400                      -0.08165
                       0.96878                      -0.23399                      -0.08195
                       0.97604                      -0.20330                      -0.07751
                       0.98065                      -0.18105                      -0.07447
                       0.98424                      -0.16155                      -0.07191
                       0.98760                      -0.14090                      -0.06921
                       0.99060                      -0.11959                      -0.06645
                       0.99299                      -0.09940                      -0.06390
                       0.99495                      -0.07935                      -0.06141
                       0.99637                      -0.06115                      -0.05924
                       0.99720                      -0.04735                      -0.05780
                       0.99784                      -0.03376                      -0.05634
                       0.99823                      -0.02241                      -0.05504
                       0.99844                      -0.01397                      -0.05403
                       0.99852                      -0.00948                      -0.05359
                       0.99851                      -0.00950                      -0.05371
        </DataArray>
        <DataArray type="Float32" Name="OrientationY" NumberOfComponents="3" format="ascii">
                       0.24409                       0.95788                       0.15127
                       0.24409                       0.95788                       0.15129
                       0.24410                       0.95787                       0.15135
                       0.24412                       0.95785                       0.15141
                       0.24416                       0.95783                       0.15150
                       0.21319                       0.96477                       0.15416
                       0.19078                       0.96915                       0.15603
                       0.17115                       0.97256                       0.15760
                       0.15036                       0.97573                       0.15919
                       0.12892                       0.97854                       0.16075
                       0.10861                       0.98077                       0.16216
                       0.08845                       0.98257                       0.16350
                       0.07017                       0.98385                       0.16466
                       0.05634                       0.98460                       0.16551
                       0.04273                       0.98514                       0.16633
                       0.03133                       0.98546                       0.16699
                       0.02285                       0.98561                       0.16747
                       0.01835                       0.98566                       0.16772
                       0.01840                       0.98566                       0.16771
        </DataArray>
        <DataArray type="Float32" Name="OrientationZ" NumberOfComponents="3" format="ascii">
                       0.04247                      -0.16640                       0.98514
                       0.04250                      -0.16643                       0.98514
                       0.04261                      -0.16651                       0.98512
                       0.04278                      -0.16662                       0.98509
                       0.04304                      -0.16678                       0.98505
                       0.04344                      -0.16699                       0.98500
                       0.04392                      -0.16721                       0.98494
                       0.04447                      -0.16743                       0.98488
                       0.04510                      -0.16763                       0.98482
                       0.04580                      -0.16781                       0.98476
                       0.04656                      -0.16797                       0.98469
                       0.04737                      -0.16810                       0.98463
                       0.04822                      -0.16822                       0.98457
                       0.04907                      -0.16831                       0.98451
                       0.04989                      -0.16838                       0.98446
                       0.05050                      -0.16842                       0.98442
                       0.05092                      -0.16844                       0.98440
                       0.05123                      -0.16845                       0.98438
                       0.05135                      -0.16845                       0.98437
        </DataArray>
        <DataArray type="Float32" Name="Force" NumberOfComponents="3" format="ascii">
                      74.65842                     -90.13461                     -18.44270
                     106.47287                     -97.53874                     -21.06856
                     114.12427                     -98.18682                     -21.52132
                      85.10832                     -68.53381                     -15.27194
                     414.03967                    -140.26236                     -41.78490
                     410.88566                    -117.16438                     -37.91446
                     377.73727                     -98.35325                     -33.46079
                     343.63383                     -80.10062                     -29.05166
                     315.40782                     -61.81375                     -24.88988
                     286.36403                     -49.74450                     -21.72455
                     272.46333                     -37.37275                     -19.19957
                     249.45374                     -29.11548                     -16.92375
                     230.02774                     -22.45440                     -15.06276
                     211.75261                     -17.70847                     -13.55010
                     193.60685                     -13.34846                     -12.06985
                     179.51235                     -10.17755                     -10.93184
                     163.26678                      -7.70027                      -9.74842
                     112.40734                      -4.71998                      -6.64969
                      70.13236                      -2.85180                      -4.14117
        </DataArray>
        <DataArray type="Float32" Name="Moment" NumberOfComponents="3" format="ascii">
                       0.00000                       0.00000                       0.00000
                       0.00000                       0.00000                       0.00000
                       0.00000                       0.00000                       0.00000
                       0.00000                       0.00000                       0.00000
                     -29.51598                     114.09516                    -675.46024
                     -28.73647                     110.05457                    -651.51612
                     -25.15510                      95.28313                    -564.04597
                     -22.10234                      82.67462                    -489.38344
                     -18.85197                      69.53560                    -411.58549
                     -15.98869                      58.07698                    -343.73989
                     -12.76870                      45.62271                    -270.00863
                     -10.84940                      38.09880                    -225.46358
                      -9.11557                      31.44705                    -186.08539
                      -7.66604                      25.98655                    -153.76161
                      -6.38877                      21.30277                    -126.03868
                      -5.43887                      17.91538                    -105.99127
                      -4.46421                      14.58548                     -86.28773
                      -2.08497                       6.76995                     -40.04991
                      -1.28423                       4.16078                     -24.61422
        </DataArray>
      </PointData>
      <Lines>
        <DataArray type="Int32" Name="connectivity" format="ascii">
      0      1
      1      2
      2      3
      3      4
      4      5
      5      6
      6      7
      7      8
      8      9
      9     10
     10     11
     11     12
     12     13
     13     14
     14     15
     15     16
     16     17
     17     18
        </DataArray>
        <DataArray type="Int32" Name="offsets" format="ascii">
      2
      4
      6
      8
     10
     12
     14
     16
     18
     20
     22
     24
     26
     28
     30
     32
     34
     36
        </DataArray>
      </Lines>
    </Piece>
  </PolyData>
</VTKFile>
