<?xml version="1.0"?>
<VTKFile type="PolyData" version="0.1" byte_order="LittleEndian">
  <PolyData>
    <Piece NumberOfPoints="     19" NumberOfVerts="  0" NumberOfLines="     18"
           NumberOfStrips="  0" NumberOfPolys="      0">
      <Points>
        <DataArray type="Float32" NumberOfComponents="3" format="ascii">
                      -5.07234                       1.49402                      89.88827
                      -5.14156                       2.85543                      89.78991
                      -5.29393                       5.58459                      89.68807
                      -5.45282                       8.31689                      89.62995
                      -5.65525                      11.73434                      89.58159
                      -5.85767                      15.82605                      89.37231
                      -6.04700                      19.90787                      89.02686
                      -6.23823                      23.98893                      88.67426
                      -6.42888                      28.06918                      88.31287
                      -6.61933                      32.14881                      87.94517
                      -6.81031                      36.22813                      87.57551
                      -7.00092                      40.30713                      87.20295
                      -7.19152                      44.38586                      86.82816
                      -7.38254                      48.46435                      86.45173
                      -7.57205                      52.54276                      86.07399
                      -7.72857                      55.94142                      85.75829
                      -7.85373                      58.65955                      85.49734
                      -7.98373                      61.37275                      85.18126
                      -8.04541                      62.73295                      85.06435
        </DataArray>
      </Points>
      <PointData>
        <DataArray type="Float32" Name="TranslationalVelocity" NumberOfComponents="3" format="ascii">
                       0.03243                       0.00589                       0.10698
                       0.04075                       0.01323                       0.20273
                       0.05746                       0.02132                       0.39469
                       0.07418                       0.02638                       0.58688
                       0.09504                       0.03101                       0.82726
                       0.11987                       0.04694                       1.11507
                       0.14444                       0.07237                       1.40219
                       0.16883                       0.09830                       1.68929
                       0.19300                       0.12484                       1.97638
                       0.21689                       0.15182                       2.26346
                       0.24049                       0.17892                       2.55058
                       0.26374                       0.20622                       2.83774
                       0.28662                       0.23366                       3.12495
                       0.30910                       0.26122                       3.41221
                       0.33117                       0.28884                       3.69954
                       0.34924                       0.31191                       3.93902
                       0.36348                       0.33095                       4.13058
                       0.37751                       0.35390                       4.32181
                       0.38450                       0.36245                       4.41769
        </DataArray>
        <DataArray type="Float32" Name="RotationalVelocity" NumberOfComponents="3" format="ascii">
                       0.07032                       0.00038                      -0.00614
                       0.07032                       0.00038                      -0.00614
                       0.07032                       0.00038                      -0.00613
                       0.07032                       0.00038                      -0.00612
                       0.07032                       0.00038                      -0.00610
                       0.07032                       0.00038                      -0.00607
                       0.07033                       0.00038                      -0.00603
                       0.07034                       0.00038                      -0.00599
                       0.07034                       0.00038                      -0.00593
                       0.07036                       0.00038                      -0.00586
                       0.07037                       0.00038                      -0.00579
                       0.07038                       0.00039                      -0.00570
                       0.07040                       0.00040                      -0.00560
                       0.07041                       0.00041                      -0.00550
                       0.07043                       0.00042                      -0.00540
                       0.07044                       0.00043                      -0.00533
                       0.07045                       0.00044                      -0.00527
                       0.07045                       0.00045                      -0.00522
                       0.07046                       0.00045                      -0.00520
        </DataArray>
        <DataArray type="Float32" Name="TranslationalAcceleration" NumberOfComponents="3" format="ascii">
                       0.07391                      -0.02774                       0.02258
                       0.02251                      -0.01448                       0.01465
                       0.05568                      -0.03918                       0.04026
                       0.07625                      -0.05932                       0.06172
                       0.09051                      -0.07997                       0.08496
                       0.09761                      -0.09925                       0.11010
                       0.10133                      -0.11528                       0.13433
                       0.10728                      -0.13087                       0.15828
                       0.11836                      -0.14706                       0.18246
                       0.13567                      -0.16418                       0.20683
                       0.15905                      -0.18209                       0.23098
                       0.18752                      -0.20032                       0.25436
                       0.21979                      -0.21832                       0.27639
                       0.25474                      -0.23565                       0.29664
                       0.29193                      -0.25218                       0.31505
                       0.32514                      -0.26555                       0.32923
                       0.35379                      -0.27629                       0.34035
                       0.38530                      -0.28728                       0.35203
                       0.40282                      -0.29337                       0.35800
        </DataArray>
        <DataArray type="Float32" Name="OrientationX" NumberOfComponents="3" format="ascii">
                       0.98822                       0.06039                       0.14060
                       0.98822                       0.06039                       0.14060
                       0.98822                       0.06043                       0.14060
                       0.98822                       0.06048                       0.14060
                       0.98821                       0.06055                       0.14060
                       0.99232                       0.05837                       0.10906
                       0.99466                       0.05669                       0.08627
                       0.99627                       0.05510                       0.06635
                       0.99755                       0.05330                       0.04530
                       0.99840                       0.05130                       0.02364
                       0.99878                       0.04926                       0.00317
                       0.99874                       0.04711                      -0.01710
                       0.99836                       0.04501                      -0.03543
                       0.99785                       0.04321                      -0.04927
                       0.99716                       0.04138                      -0.06287
                       0.99644                       0.03986                      -0.07423
                       0.99582                       0.03873                      -0.08266
                       0.99547                       0.03800                      -0.08713
                       0.99548                       0.03786                      -0.08709
        </DataArray>
        <DataArray type="Float32" Name="OrientationY" NumberOfComponents="3" format="ascii">
                       0.14452                      -0.06638                      -0.98727
                       0.14453                      -0.06658                      -0.98726
                       0.14456                      -0.06710                      -0.98722
                       0.14460                      -0.06776                      -0.98717
                       0.14465                      -0.06869                      -0.98710
                       0.11314                      -0.07177                      -0.99098
                       0.09037                      -0.07427                      -0.99313
                       0.07047                      -0.07649                      -0.99458
                       0.04941                      -0.07863                      -0.99568
                       0.02773                      -0.08063                      -0.99636
                       0.00723                      -0.08239                      -0.99657
                      -0.01310                      -0.08396                      -0.99638
                      -0.03150                      -0.08529                      -0.99586
                      -0.04541                      -0.08630                      -0.99523
                      -0.05908                      -0.08718                      -0.99444
                      -0.07050                      -0.08785                      -0.99364
                      -0.07899                      -0.08831                      -0.99296
                      -0.08350                      -0.08857                      -0.99256
                      -0.08346                      -0.08860                      -0.99256
        </DataArray>
        <DataArray type="Float32" Name="OrientationZ" NumberOfComponents="3" format="ascii">
                      -0.05028                       0.99597                      -0.07433
                      -0.05026                       0.99595                      -0.07452
                      -0.05022                       0.99591                      -0.07505
                      -0.05017                       0.99587                      -0.07570
                      -0.05011                       0.99580                      -0.07663
                      -0.05002                       0.99571                      -0.07782
                      -0.04989                       0.99563                      -0.07900
                      -0.04973                       0.99555                      -0.08009
                      -0.04950                       0.99548                      -0.08107
                      -0.04921                       0.99542                      -0.08192
                      -0.04883                       0.99538                      -0.08264
                      -0.04838                       0.99535                      -0.08324
                      -0.04785                       0.99534                      -0.08374
                      -0.04725                       0.99533                      -0.08415
                      -0.04664                       0.99533                      -0.08449
                      -0.04613                       0.99534                      -0.08473
                      -0.04575                       0.99534                      -0.08488
                      -0.04543                       0.99534                      -0.08500
                      -0.04530                       0.99535                      -0.08504
        </DataArray>
        <DataArray type="Float32" Name="Force" NumberOfComponents="3" format="ascii">
                      69.88711                       3.02909                      -6.69109
                      69.79921                       2.95975                      -7.52541
                      75.82852                       3.07157                     -10.01158
                      57.34853                       2.21294                      -8.96566
                     352.22267                      24.09968                      86.37665
                     325.99092                      21.00256                      63.34361
                     319.41989                      19.93919                      54.44140
                     278.44973                      16.69544                      39.23179
                     246.71296                      13.99505                      25.09871
                     235.26714                      12.87816                      18.83048
                     216.40279                      11.09862                       8.59153
                     205.21777                      10.10960                       3.98670
                     178.15726                       8.31900                      -1.28256
                     166.74669                       7.50972                      -3.49626
                     154.84933                       6.70564                      -5.48331
                     144.74094                       6.06218                      -6.84721
                     132.43866                       5.40803                      -7.42861
                      91.32085                       3.66590                      -5.55639
                      91.91609                       3.67692                      -5.59495
        </DataArray>
        <DataArray type="Float32" Name="Moment" NumberOfComponents="3" format="ascii">
                       0.00000                       0.00000                       0.00000
                       0.00000                       0.00000                       0.00000
                       0.00000                       0.00000                       0.00000
                       0.00000                       0.00000                       0.00000
                      15.40320                    -307.37270                      22.94863
                      15.71266                    -314.78124                      23.50716
                      14.42579                    -290.30509                      21.68503
                      13.31092                    -269.28323                      20.12090
                      11.78040                    -239.82003                      17.92588
                      10.33790                    -212.04566                      15.85666
                       8.28705                    -171.51604                      12.83243
                       7.18369                    -150.25978                      11.24876
                       6.09302                    -128.99648                       9.66342
                       5.14239                    -110.33133                       8.27121
                       4.27471                     -93.00752                       6.97776
                       3.61783                     -79.62778                       5.97763
                       2.95270                     -65.54732                       4.92284
                       1.36947                     -30.62705                       2.30109
                       1.37031                     -30.74032                       2.30997
        </DataArray>
      </PointData>
      <Lines>
        <DataArray type="Int32" Name="connectivity" format="ascii">
      0      1
      1      2
      2      3
      3      4
      4      5
      5      6
      6      7
      7      8
      8      9
      9     10
     10     11
     11     12
     12     13
     13     14
     14     15
     15     16
     16     17
     17     18
        </DataArray>
        <DataArray type="Int32" Name="offsets" format="ascii">
      2
      4
      6
      8
     10
     12
     14
     16
     18
     20
     22
     24
     26
     28
     30
     32
     34
     36
        </DataArray>
      </Lines>
    </Piece>
  </PolyData>
</VTKFile>
